{
    "efficiencies": [
        ["TrackerMuons", "genTracks"],
        ["PFMuons", "TrackerMuons"],
        ["GlobalMuons", "TMPFMuons"],
        ["TightID", "LooseID"]
    ],
    "selection": "tag_pt>29 and tag_eta<2.4 and tag_eta > -2.4 and abs(pair_dz)<0.5",
    "definitions": {
        "genTracks": "((tag_pt<20) or (tag_pt>20))",
        "TMPFMuons": "((probe_isTracker==1) and (probe_isPF==1))",
        "TrackerMuons": "probe_isTracker == 1",
        "GlobalMuons": "probe_isGlobal == 1",
        "LooseID": "probe_CutBasedIdLoose == 1",
        "MediumID": "probe_CutBasedIdMedium == 1",
        "MediumPromptID": "probe_CutBasedIdMediumPrompt == 1",
        "TightID": "probe_CutBasedIdTight == 1",
        "TightIDandIPCut": "probe_CutBasedIdTight == 1",
        "SoftID": "probe_SoftCutBasedId == 1",
        "PFMuons": "probe_isPF == 1",
        "probe_abseta": "abs(probe_eta)"
    },
    "binning": {
        "pt": [15, 200],
        "abseta": [0, 0.9, 1.2, 1.6, 2.1, 2.4],
        "cBin": [0, 80, 200],
        "mass": "np.array(range(60*4, 140*4+1)) * 0.25",
        "mcmass": "np.array(range(60*4, 140*4+1)) * 0.25"
    },
    "variables": {
        "pt": {"variable": "probe_pt", "pretty": "p_{T} (GeV)"},
        "eta": {"variable": "probe_eta", "pretty": "#eta"},
        "abseta": {"variable": "probe_abseta", "pretty": "#left|#eta#right|"},
        "cBin": {"variable": "hi_cBin", "pretty": "HF tower"},
        "mass": {"variable": "pair_mass", "pretty": "m(#mu#mu) (GeV)"},
        "mcmass": {"variable": "pair_mass", "pretty": "m(#mu#mu) (GeV)"}
    },
    "fitVariable": "mass",
    "fitVariableGen": "mcmass",
    "binVariables": [
        ["abseta","pt","cBin"]
    ],
    "shifts": {
    },
    "fitShifts": {
        "NominalOld": {"fitType": "NominalOld"}
    },
    "systematics" : {
        "SF": {
            "fitTypes": ["NominalOld"],
            "shiftTypes" :[]
        },
        "dataEff": {
            "fitTypes": ["NominalOld"],
            "shiftTypes" :[]
        },
        "mcEff": {
            "fitTypes": [],
            "shiftTypes" :[]
        }
    }
}
