{
    "efficiencies": [
        ["TrackerMuons", "genTracks"],
        ["GlobalMuons", "genTracks"],
        ["LooseID", "genTracks"],
        ["MediumID", "genTracks"],
        ["MediumPromptID", "genTracks"],
        ["TightID", "genTracks"],
        ["SoftID", "genTracks"],
        ["LooseID", "TrackerMuons"],
        ["MediumID", "TrackerMuons"],
        ["MediumPromptID", "TrackerMuons"],
        ["TightID", "TrackerMuons"],
        ["SoftID", "TrackerMuons"]
    ],
    "selection": "tag_pt>29 and tag_eta<2.4 and tag_eta > -2.4 and abs(pair_dz)<0.5",
    "definitions": {
        "genTracks": "((tag_pt<20) or (tag_pt>20))",
        "TrackerMuons": "probe_isTracker == 1",
        "GlobalMuons": "probe_isGlobal == 1",
        "LooseID": "probe_CutBasedIdLoose == 1",
        "MediumID": "probe_CutBasedIdMedium == 1",
        "MediumPromptID": "probe_CutBasedIdMediumPrompt == 1",
        "TightID": "probe_CutBasedIdTight == 1",
        "TightIDandIPCut": "probe_CutBasedIdTight == 1",
        "SoftID": "probe_SoftCutBasedId == 1"
    },
    "binning": {
        "pt": [0, 200],
        "eta": [-2.4, 2.4],
        "cBin": [0, 180],
        "mass": "np.array(range(60*4, 140*4+1)) * 0.25",
        "mcmass": "np.array(range(60*4, 140*4+1)) * 0.25"
    },
    "variables": {
        "pt": {"variable": "probe_pt", "pretty": "p_{T} (GeV)"},
        "eta": {"variable": "probe_eta", "pretty": "#eta"},
        "cBin": {"variable": "hi_cBin", "pretty": "HF tower"},
        "mass": {"variable": "pair_mass", "pretty": "m(#mu#mu) (GeV)"},
        "mcmass": {"variable": "pair_mass", "pretty": "m(#mu#mu) (GeV)"}
    },
    "fitVariable": "mass",
    "fitVariableGen": "mcmass",
    "binVariables": [
        ["eta", "pt", "cBin"]
    ],
    "shifts": {
    },
    "fitShifts": {
        "massBinUp": {"shiftType": "massBinUp"},
        "massBinDown": {"shiftType": "massBinDown"}
    },
    "systematics" : {
        "SF": {
            "fitTypes": [],
            "shiftTypes": ["massBin"]
        },
        "dataEff": {
            "fitTypes": [],
            "shiftTypes": ["massBin"]
        },
        "mcEff": {
            "fitTypes": [],
            "shiftTypes": ["massBin"]
        }
    }
}
